Quick Project 1
…
Grade is also positively correlated while condition interestingly follows and inverted U, with condition 3 and 4 being high value homes

I wonder where the disconnect is for condition 5 homes and why the high value homes are not in that catagory

High value homes seem to be spread out among multiple zip codes and years built

df %>%
  group_by(zip_code) %>%
  summarize(median = median(price))

## # A tibble: 70 x 2
##    zip_code   median
##    <fct>       <dbl>
##  1 98001     260000 
##  2 98002     235000 
##  3 98003     267475 
##  4 98004    1150000 
##  5 98005     765475 
##  6 98006     760184.
##  7 98007     555000 
##  8 98008     545000 
##  9 98010     360000.
## 10 98011     470000 
## # ... with 60 more rows
…
